…
In Progress

In my last post we demonstrated how to build a filterable map widget that was free of R runtime dependency. In continuation of the latter theme, this article focuses on the reactable package, which allows for embedding interactive data tables into your HTML document. Specifically, we look into a few custom JavaScript functions needed to do commonly-desired aggregation. We’ll use the heart_disease dataset from the cheese package.

heart_disease <- cheese::heart_disease
heart_disease

## # A tibble: 303 × 9
##      Age Sex   ChestPain    BP Cholesterol BloodSugar MaximumHR ExerciseInduced…
##    <dbl> <fct> <fct>     <dbl>       <dbl> <lgl>          <dbl> <fct>           
##  1    63 Male  Typical …   145         233 TRUE             150 No              
##  2    67 Male  Asymptom…   160         286 FALSE            108 Yes             
##  3    67 Male  Asymptom…   120         229 FALSE            129 Yes             
##  4    37 Male  Non-angi…   130         250 FALSE            187 No              
##  5    41 Fema… Atypical…   130         204 FALSE            172 No              
##  6    56 Male  Atypical…   120         236 FALSE            178 No              
##  7    62 Fema… Asymptom…   140         268 FALSE            160 No              
##  8    57 Fema… Asymptom…   120         354 FALSE            163 Yes             
##  9    63 Male  Asymptom…   130         254 FALSE            147 No              
## 10    53 Male  Asymptom…   140         203 TRUE             155 Yes             
## # … with 293 more rows, and 1 more variable: HeartDisease <fct>
…
