Building a custom LLM-powered Shiny app for hospital readmissions with {querychat} – Zajichek Stats
…
## Import datasets

# Hospital information
hospitals <- pdc_read(datasetid = "xubh-q36u", guess_max = 10000) # https://data.cms.gov/provider-data/dataset/xubh-q36u

# HRRP outcomes
hrrp <- pdc_read(datasetid = "9n3s-kdb3", na = c("N/A", "", " ")) # https://data.cms.gov/provider-data/dataset/9n3s-kdb3

The datasets look like this:

Code

hospitals

# A tibble: 5,384 × 38
   `Facility ID` `Facility Name`            Address `City/Town` State `ZIP Code`
   <chr>         <chr>                      <chr>   <chr>       <chr> <chr>     
 1 010001        SOUTHEAST HEALTH MEDICAL … 1108 R… DOTHAN      AL    36301     
 2 010005        MARSHALL MEDICAL CENTERS   2505 U… BOAZ        AL    35957     
 3 010006        NORTH ALABAMA MEDICAL CEN… 1701 V… FLORENCE    AL    35630     
 4 010007        MIZELL MEMORIAL HOSPITAL   702 N … OPP         AL    36467     
 5 010008        CRENSHAW COMMUNITY HOSPIT… 101 HO… LUVERNE     AL    36049     
 6 010011        ST. VINCENT'S EAST         50 MED… BIRMINGHAM  AL    35235     
 7 010012        DEKALB REGIONAL MEDICAL C… 200 ME… FORT PAYNE  AL    35968     
 8 010016        SHELBY BAPTIST MEDICAL CE… 1000 F… ALABASTER   AL    35007     
 9 010018        CALLAHAN EYE HOSPITAL      1720 U… BIRMINGHAM  AL    35233     
10 010019        HELEN KELLER HOSPITAL      1300 S… SHEFFIELD   AL    35660     
# ℹ 5,374 more rows
# ℹ 32 more variables: `County/Parish` <chr>, `Telephone Number` <chr>,
#   `Hospital Type` <chr>, `Hospital Ownership` <chr>,
#   `Emergency Services` <chr>,
#   `Meets criteria for birthing friendly designation` <chr>,
#   `Hospital overall rating` <chr>, `Hospital overall rating footnote` <chr>,
#   `MORT Group Measure Count` <chr>, …

Code

hrrp

# A tibble: 18,510 × 12
   `Facility Name`     `Facility ID` State `Measure Name` `Number of Discharges`
   <chr>               <chr>         <chr> <chr>                           <dbl>
 1 SOUTHEAST HEALTH M… 010001        AL    READM-30-AMI-…                    296
 2 SOUTHEAST HEALTH M… 010001        AL    READM-30-CABG…                    151
 3 SOUTHEAST HEALTH M… 010001        AL    READM-30-HF-H…                    681
 4 SOUTHEAST HEALTH M… 010001        AL    READM-30-HIP-…                     NA
 5 SOUTHEAST HEALTH M… 010001        AL    READM-30-PN-H…                    490
 6 SOUTHEAST HEALTH M… 010001        AL    READM-30-COPD…                    130
 7 MARSHALL MEDICAL C… 010005        AL    READM-30-CABG…                     NA
 8 MARSHALL MEDICAL C… 010005        AL    READM-30-HIP-…                     NA
 9 MARSHALL MEDICAL C… 010005        AL    READM-30-HF-H…                    176
10 MARSHALL MEDICAL C… 010005        AL    READM-30-PN-H…                    305
# ℹ 18,500 more rows
# ℹ 7 more variables: Footnote <dbl>, `Excess Readmission Ratio` <dbl>,
#   `Predicted Readmission Rate` <dbl>, `Expected Readmission Rate` <dbl>,
#   `Number of Readmissions` <chr>, `Start Date` <chr>, `End Date` <chr>
…
