…
How many patients can we expect to see in a given day?

What is the likelihood that we see more than 40 patients in a single day?

Do we see more variation during the week versus weekend, or in the AM versus PM hours?

To expedite the process, we’re given a pre-built dataset called ed_volumes containing the number of patients entering the ED each day over the past year.

# Load some packages
require(tidyverse)

# Check the dataset
print(ed_volumes, n = 5)

## # A tibble: 730 x 3
##   Date       TimeOfDay Volume
##   <date>     <chr>      <int>
## 1 2022-01-18 AM            19
## 2 2022-01-18 PM            12
## 3 2022-01-17 AM            20
## 4 2022-01-17 PM            16
## 5 2022-01-16 AM             5
## # … with 725 more rows
…
