…
## Rows: 55242 Columns: 13
## ── Column specification ────────────────────────────────────────────────────────
## Delimiter: ","
## chr (10): Facility Name, Facility ID, State, Period, Claim Type, Percent of ...
## dbl  (3): Avg Spndg Per EP Hospital, Avg Spndg Per EP State, Avg Spndg Per E...
## 
## ℹ Use `spec()` to retrieve the full column specification for this data.
## ℹ Specify the column types or set `show_col_types = FALSE` to quiet this message.

medicare_spend

## # A tibble: 55,242 × 13
##    Facili…¹ Facil…² State Period Claim…³ Avg S…⁴ Avg S…⁵ Avg S…⁶ Perce…⁷ Perce…⁸
##    <chr>    <chr>   <chr> <chr>  <chr>     <dbl>   <dbl>   <dbl> <chr>   <chr>  
##  1 SOUTHEA… 010001  AL    1 to … Home H…       0      17      12 0.00%   0.08%  
##  2 SOUTHEA… 010001  AL    1 to … Hospice       0       1       1 0.00%   0.00%  
##  3 SOUTHEA… 010001  AL    1 to … Inpati…       0       9       6 0.00%   0.04%  
##  4 SOUTHEA… 010001  AL    1 to … Outpat…     154     116     179 0.62%   0.54%  
##  5 SOUTHEA… 010001  AL    1 to … Skille…       0       3       6 0.00%   0.02%  
##  6 SOUTHEA… 010001  AL    1 to … Durabl…       2       9      10 0.01%   0.04%  
##  7 SOUTHEA… 010001  AL    1 to … Carrier     536     622     664 2.17%   2.90%  
##  8 SOUTHEA… 010001  AL    Durin… Home H…       0       0       0 0.00%   0.00%  
##  9 SOUTHEA… 010001  AL    Durin… Hospice       0       0       0 0.00%   0.00%  
## 10 SOUTHEA… 010001  AL    Durin… Inpati…   11409   10987   11467 46.22%  51.24% 
## # … with 55,232 more rows, 3 more variables: `Percent of Spndg National` <chr>,
## #   `Start Date` <chr>, `End Date` <chr>, and abbreviated variable names
## #   ¹​`Facility Name`, ²​`Facility ID`, ³​`Claim Type`,
## #   ⁴​`Avg Spndg Per EP Hospital`, ⁵​`Avg Spndg Per EP State`,
## #   ⁶​`Avg Spndg Per EP National`, ⁷​`Percent of Spndg Hospital`,
## #   ⁸​`Percent of Spndg State`
…
## Rows: 5307 Columns: 38
## ── Column specification ────────────────────────────────────────────────────────
## Delimiter: ","
## chr (38): Facility ID, Facility Name, Address, City, State, ZIP Code, County...
## 
## ℹ Use `spec()` to retrieve the full column specification for this data.
## ℹ Specify the column types or set `show_col_types = FALSE` to quiet this message.

hospital_information

## # A tibble: 5,307 × 38
##    Facilit…¹ Facil…² Address City  State ZIP C…³ Count…⁴ Phone…⁵ Hospi…⁶ Hospi…⁷
##    <chr>     <chr>   <chr>   <chr> <chr> <chr>   <chr>   <chr>   <chr>   <chr>  
##  1 010001    SOUTHE… 1108 R… DOTH… AL    36301   HOUSTON (334) … Acute … Govern…
##  2 010005    MARSHA… 2505 U… BOAZ  AL    35957   MARSHA… (256) … Acute … Govern…
##  3 010006    NORTH … 1701 V… FLOR… AL    35630   LAUDER… (256) … Acute … Propri…
##  4 010007    MIZELL… 702 N … OPP   AL    36467   COVING… (334) … Acute … Volunt…
##  5 010008    CRENSH… 101 HO… LUVE… AL    36049   CRENSH… (334) … Acute … Propri…
##  6 010011    ST. VI… 50 MED… BIRM… AL    35235   JEFFER… (205) … Acute … Volunt…
##  7 010012    DEKALB… 200 ME… FORT… AL    35968   DE KALB (256) … Acute … Propri…
##  8 010016    SHELBY… 1000 F… ALAB… AL    35007   SHELBY  (205) … Acute … Volunt…
##  9 010018    CALLAH… 1720 U… BIRM… AL    35233   JEFFER… (205) … Acute … Volunt…
## 10 010019    HELEN … 1300 S… SHEF… AL    35660   COLBERT (256) … Acute … Govern…
## # … with 5,297 more rows, 28 more variables: `Emergency Services` <chr>,
## #   `Meets criteria for promoting interoperability of EHRs` <chr>,
## #   `Hospital overall rating` <chr>, `Hospital overall rating footnote` <chr>,
## #   `MORT Group Measure Count` <chr>, `Count of Facility MORT Measures` <chr>,
## #   `Count of MORT Measures Better` <chr>,
## #   `Count of MORT Measures No Different` <chr>,
## #   `Count of MORT Measures Worse` <chr>, `MORT Group Footnote` <chr>, …
…
  # Keep a couple columns
  select(
    HospitalID = `Facility ID`,
    Hospital = `Facility Name`,
    County = `County Name`
  ) %>%
  
  # Keep the first letter capitalized only
  mutate(
    County = str_c(str_sub(County, 1, 1), tolower(str_sub(County, 2)))
  )

## # A tibble: 138 × 3
##    HospitalID Hospital                                                County    
##    <chr>      <chr>                                                   <chr>     
##  1 520002     ASPIRUS STEVENS POINT HOSPITAL & CLINICS, INC.          Portage   
##  2 520004     MAYO CLINIC HEALTH SYSTEM-FRANCISCAN MEDICAL CENTER INC La crosse 
##  3 520008     WAUKESHA MEMORIAL HOSPITAL                              Waukesha  
##  4 520009     ASCENSION NE WISCONSIN - ST ELIZABETH CAMPUS            Outagamie 
##  5 520011     MARSHFIELD MEDICAL CENTER - RICE LAKE                   Barron    
##  6 520013     SACRED HEART HOSPITAL                                   Eau claire
##  7 520017     ST JOSEPH'S HOSPITAL                                    Chippewa  
##  8 520019     ASCENSION ST MARYS HOSPITAL                             Oneida    
##  9 520021     UNITED HOSPITAL SYSTEM                                  Kenosha   
## 10 520027     ASCENSION COLUMBIA ST MARY'S HOSPITAL OZAUKEE           Ozaukee   
## # … with 128 more rows
