…
  # Set the new last posterior
  last_posterior <- temp_posterior

}
results

## # A tibble: 45 × 6
##    sample sequence     p likelihood posterior last_posterior
##     <int> <chr>    <dbl>      <dbl>     <dbl>          <dbl>
##  1      1 1         0         0           0              0.2
##  2      1 1         0.25      0.25        0.1            0.2
##  3      1 1         0.5       0.5         0.2            0.2
##  4      1 1         0.75      0.75        0.3            0.2
##  5      1 1         1         1           0.4            0.2
##  6      2 1,0       0         0           0              0  
##  7      2 1,0       0.25      0.188       0.3            0.1
##  8      2 1,0       0.5       0.25        0.4            0.2
##  9      2 1,0       0.75      0.188       0.3            0.3
## 10      2 1,0       1         0           0              0.4
## # … with 35 more rows
…
