…
25% of patients have severe disease regardless how far they live from the trial center (denoted S)

So we have…

\[P(N) = 0.65 \hskip{.25in} P(S|N) = 0.25 \hskip{.25in} P(S|\bar{N}) = 0.25\]
Our sampling strategy will be to select patients at random from the entire population until 1000 are enrolled.

The problem

Suppose we eventually reach the desired enrollment size and even though the follow-up is ongoing, we’re given a data set (called patients) to do some preliminary analysis on the sample. Here are the first 5 rows:

print(patients, n = 5)

## # A tibble: 1,000 x 2
##   S          N        
##   <fct>      <fct>    
## 1 Non-severe <20 miles
## 2 Severe     >20 miles
## 3 Severe     <20 miles
## 4 Non-severe <20 miles
## 5 Non-severe <20 miles
## # … with 995 more rows
…
