The overlap weight in survival analysis – Zajichek Stats
…
# Set the seed
set.seed(123)

# Build the population
population <-
  tibble(
    age = rnorm(n, mean = 50, sd = 10),
    zage = (age - 50) / 10,
    male = rbinom(n, size = 1, prob = 0.6),
    income = rnorm(n, mean = 50, sd = 10),
    zincome = (income - 50) / 10
  )
population

# A tibble: 10,000 × 5
     age    zage  male income zincome
   <dbl>   <dbl> <int>  <dbl>   <dbl>
 1  44.4 -0.560      0   36.5  -1.35 
 2  47.7 -0.230      1   44.2  -0.579
 3  65.6  1.56       1   41.4  -0.861
 4  50.7  0.0705     1   59.7   0.973
 5  51.3  0.129      0   56.2   0.619
 6  67.2  1.72       1   63.9   1.39 
 7  54.6  0.461      1   35.1  -1.49 
 8  37.3 -1.27       1   56.4   0.639
 9  43.1 -0.687      1   53.7   0.375
10  45.5 -0.446      1   53.7   0.370
# ℹ 9,990 more rows
…
So let’s add this true propensity score to the population data set:

Code

population <-
  population |>
  
  # Add the true propensity score (unknown quantity)
  mutate(
    log_odds_pA = -0.4 + log(1.5)*zage + log(0.8)*male + log(.50)*zincome,
    pA = 1 / (1 + exp(-log_odds_pA))
  )
population

# A tibble: 10,000 × 7
     age    zage  male income zincome log_odds_pA    pA
   <dbl>   <dbl> <int>  <dbl>   <dbl>       <dbl> <dbl>
 1  44.4 -0.560      0   36.5  -1.35        0.311 0.577
 2  47.7 -0.230      1   44.2  -0.579      -0.315 0.422
 3  65.6  1.56       1   41.4  -0.861       0.606 0.647
 4  50.7  0.0705     1   59.7   0.973      -1.27  0.219
 5  51.3  0.129      0   56.2   0.619      -0.777 0.315
 6  67.2  1.72       1   63.9   1.39       -0.888 0.292
 7  54.6  0.461      1   35.1  -1.49        0.595 0.644
 8  37.3 -1.27       1   56.4   0.639      -1.58  0.171
 9  43.1 -0.687      1   53.7   0.375      -1.16  0.238
10  45.5 -0.446      1   53.7   0.370      -1.06  0.257
# ℹ 9,990 more rows
…
where \(A_i\) is the indicator of treatment A. Let’s add a realized treatment assignment to the population:

Code

population <-
  population |>
  
  # Add the realized treatment assignment (known quantity)
  mutate(
    A = rbinom(n, size = 1, prob = pA),
  )
population

# A tibble: 10,000 × 8
     age    zage  male income zincome log_odds_pA    pA     A
   <dbl>   <dbl> <int>  <dbl>   <dbl>       <dbl> <dbl> <int>
 1  44.4 -0.560      0   36.5  -1.35        0.311 0.577     1
 2  47.7 -0.230      1   44.2  -0.579      -0.315 0.422     0
 3  65.6  1.56       1   41.4  -0.861       0.606 0.647     1
 4  50.7  0.0705     1   59.7   0.973      -1.27  0.219     0
 5  51.3  0.129      0   56.2   0.619      -0.777 0.315     1
 6  67.2  1.72       1   63.9   1.39       -0.888 0.292     1
 7  54.6  0.461      1   35.1  -1.49        0.595 0.644     0
 8  37.3 -1.27       1   56.4   0.639      -1.58  0.171     0
 9  43.1 -0.687      1   53.7   0.375      -1.16  0.238     0
10  45.5 -0.446      1   53.7   0.370      -1.06  0.257     0
# ℹ 9,990 more rows
…
Notice the notation. Since it depends on the true propensity score, the overlap weight is another unknown quantity that is estimated from the data. It also depends on the realized treatment assignment, so the collection of weights across patients differ depending on the observed treatment distribution. We can add these weights to the population data set:

Code

population <-
  population |>
  
  # Add the true overlap weight for the realized treatment (unknown quantity)
  mutate(
    OW = A * (1-pA) + (1-A) * pA
  )
population

# A tibble: 10,000 × 9
     age    zage  male income zincome log_odds_pA    pA     A    OW
   <dbl>   <dbl> <int>  <dbl>   <dbl>       <dbl> <dbl> <int> <dbl>
 1  44.4 -0.560      0   36.5  -1.35        0.311 0.577     1 0.423
 2  47.7 -0.230      1   44.2  -0.579      -0.315 0.422     0 0.422
 3  65.6  1.56       1   41.4  -0.861       0.606 0.647     1 0.353
 4  50.7  0.0705     1   59.7   0.973      -1.27  0.219     0 0.219
 5  51.3  0.129      0   56.2   0.619      -0.777 0.315     1 0.685
 6  67.2  1.72       1   63.9   1.39       -0.888 0.292     1 0.708
 7  54.6  0.461      1   35.1  -1.49        0.595 0.644     0 0.644
 8  37.3 -1.27       1   56.4   0.639      -1.58  0.171     0 0.171
 9  43.1 -0.687      1   53.7   0.375      -1.16  0.238     0 0.238
10  45.5 -0.446      1   53.7   0.370      -1.06  0.257     0 0.257
# ℹ 9,990 more rows
…
    # Baseline hazard (constant over time)
    lambda = 1*365/0.09,
    
    # Define TRUE Weibull linear predictor
    phi = log(3) * zage + log(0.8) * male + log(.70) * zincome,
    sigma_A = lambda * exp(-(phi + log(0.70))),
    sigma_B = lambda * exp(-phi),
    
    # Generate REALIZED survival times under each treatment scenario (same parameterizations in SAS)
    t_A = rweibull(n, shape = 1, scale = sigma_A),
    t_B = rweibull(n, shape = 1, scale = sigma_B), 
  )
population |> select(lambda, phi, sigma_A, sigma_B, t_A, t_B)

# A tibble: 10,000 × 6
   lambda     phi sigma_A sigma_B    t_A   t_B
    <dbl>   <dbl>   <dbl>   <dbl>  <dbl> <dbl>
 1  4056. -0.133    6617.   4632.  5689. 7760.
 2  4056. -0.269    7585.   5309.  1831. 9482.
 3  4056.  1.80      961.    673.   488.  300.
 4  4056. -0.493    9482.   6637. 23722.  255.
 5  4056. -0.0788   6269.   4388.  7649. 1800.
 6  4056.  1.17     1804.   1263.  1953. 1493.
 7  4056.  0.814    2568.   1797.  5462. 2652.
 8  4056. -1.84    36514.  25560. 38262. 2385.
 9  4056. -1.11    17604.  12323.  3577. 6894.
10  4056. -0.845   13485.   9439. 38541. 3743.
# ℹ 9,990 more rows
…
    # The ACTUAL event time outcome depends on the treatment ACTUALLY observed for the patient
    actual_event_time = t_B * (1 - A) + t_A * A,
    
    # Generate a REALIZED censoring time (completely random)
    censor_time = 500 + 500 * runif(n),
    
    # Calculate the OBSERVED time in the data set (known quantity)
    time = pmin(actual_event_time, censor_time), # They either had the event, or were censored first
    
    # Calculate the event status (TRUE if event observed, FALSE if censored)
    status = as.numeric(actual_event_time < censor_time)
  )
population |> select(actual_event_time, censor_time, time, status)

# A tibble: 10,000 × 4
   actual_event_time censor_time  time status
               <dbl>       <dbl> <dbl>  <dbl>
 1             5689.        843.  843.      0
 2             9482.        814.  814.      0
 3              488.        882.  488.      1
 4              255.        936.  255.      1
 5             7649.        653.  653.      0
 6             1953.        890.  890.      0
 7             2652.        737.  737.      0
 8             2385.        703.  703.      0
 9             6894.        952.  952.      0
10             3743.        526.  526.      0
# ℹ 9,990 more rows
…
Estimating the weights

Now that our simulation is set, we can start using the observed data (i.e., known quantities) to estimate the case-weights needed for treatment effect estimation. This is the process we’d go through in a real-life analysis, but here we have the benefit of knowing the truth, so we can see how close our estimations are to reality.

The intention of these weights is to adjust the observed sample to create a pseudo-population such that the patient characteristics that we believe are confounding the treatment effect are corrected for, or balanced, across the treatment groups. The term “pseudo” here is a little misleading. It’s simply referring to the fact that each patient will not contribute the same weight in estimating the treatment effect. In fact, the patients with the most overlap in characteristics across the treatment groups will contribute the most, with patients being proportionately down-weighted the less overlap they have (I’d argue this is the same thing that is done in matching, it’s just that the weights for patients are either exactly 1 or 0). This is done to tease out the portion of the outcome differences that is explained by the treatment, namely, the causal treatment effect.

Model the propensity scores

We’ve established that the overlap weights are quantities that need to be estimated from the data. In order to calculate those weights, we first need to estimate the propensity scores. We know what the true model is, but let’s assume we are only working with observable data:

Code

population |> select(zage, male, zincome, A, time, status)

# A tibble: 10,000 × 6
      zage  male zincome     A  time status
     <dbl> <int>   <dbl> <int> <dbl>  <dbl>
 1 -0.560      0  -1.35      1  843.      0
 2 -0.230      1  -0.579     0  814.      0
 3  1.56       1  -0.861     1  488.      1
 4  0.0705     1   0.973     0  255.      1
 5  0.129      0   0.619     1  653.      0
 6  1.72       1   1.39      1  890.      0
 7  0.461      1  -1.49      0  737.      0
 8 -1.27       1   0.639     0  703.      0
 9 -0.687      1   0.375     0  952.      0
10 -0.446      1   0.370     0  526.      0
# ℹ 9,990 more rows
…
Code

population <- 
  population |>
  
  # Add the normalized weights (adding true and estimated)
  mutate(
    OW_norm = OW / sum(OW),
    OW_hat_norm = OW_hat / sum(OW_hat),
    .by = A
  )
population |> select(A, pA, pA_hat, OW, OW_norm, OW_hat, OW_hat_norm)

# A tibble: 10,000 × 7
       A    pA pA_hat    OW   OW_norm OW_hat OW_hat_norm
   <int> <dbl>  <dbl> <dbl>     <dbl>  <dbl>       <dbl>
 1     1 0.577  0.583 0.423 0.000202   0.417   0.000198 
 2     0 0.422  0.427 0.422 0.000201   0.427   0.000202 
 3     1 0.647  0.610 0.353 0.000168   0.390   0.000185 
 4     0 0.219  0.226 0.219 0.000105   0.226   0.000107 
 5     1 0.315  0.329 0.685 0.000327   0.671   0.000318 
 6     1 0.292  0.265 0.708 0.000338   0.735   0.000348 
 7     0 0.644  0.628 0.644 0.000307   0.628   0.000297 
 8     0 0.171  0.181 0.171 0.0000814  0.181   0.0000856
 9     0 0.238  0.250 0.238 0.000114   0.250   0.000118 
10     0 0.257  0.268 0.257 0.000123   0.268   0.000127 
# ℹ 9,990 more rows
…
