…
## ── Attaching packages ─────────────────────────────────────── tidyverse 1.3.2 ──
## ✔ ggplot2 3.4.0     ✔ purrr   1.0.0
## ✔ tibble  3.1.8     ✔ dplyr   1.1.0
## ✔ tidyr   1.2.1     ✔ stringr 1.4.1
## ✔ readr   2.1.3     ✔ forcats 0.5.2
## ── Conflicts ────────────────────────────────────────── tidyverse_conflicts() ──
## ✖ dplyr::filter() masks stats::filter()
## ✖ dplyr::lag()    masks stats::lag()

For example, lets say we have a dataset.

dat <- cheese::heart_disease
dat

## # A tibble: 303 × 9
##      Age Sex    ChestPain           BP Cholest…¹ Blood…² Maxim…³ Exerc…⁴ Heart…⁵
##    <dbl> <fct>  <fct>            <dbl>     <dbl> <lgl>     <dbl> <fct>   <fct>  
##  1    63 Male   Typical angina     145       233 TRUE        150 No      No     
##  2    67 Male   Asymptomatic       160       286 FALSE       108 Yes     Yes    
##  3    67 Male   Asymptomatic       120       229 FALSE       129 Yes     Yes    
##  4    37 Male   Non-anginal pain   130       250 FALSE       187 No      No     
##  5    41 Female Atypical angina    130       204 FALSE       172 No      No     
##  6    56 Male   Atypical angina    120       236 FALSE       178 No      No     
##  7    62 Female Asymptomatic       140       268 FALSE       160 No      Yes    
##  8    57 Female Asymptomatic       120       354 FALSE       163 Yes     No     
##  9    63 Male   Asymptomatic       130       254 FALSE       147 No      Yes    
## 10    53 Male   Asymptomatic       140       203 TRUE        155 Yes     Yes    
## # … with 293 more rows, and abbreviated variable names ¹​Cholesterol,
## #   ²​BloodSugar, ³​MaximumHR, ⁴​ExerciseInducedAngina, ⁵​HeartDisease
…
