…
The following transformation is made (general solution here):

\[X_{trans} = (x-\nu_1)_+^3 - (x-\nu_2)_+^3\frac{\nu_3-\nu_1}{\nu_3-\nu_2} + (x-\nu_3)_+^3\frac{\nu_2-\nu_1}{\nu_3-\nu_2}\]
Let’s check out that transformation on our data:

tibble::tibble(
  x = as.numeric(x_trans[,"x"]),
  x_trans_actual = as.numeric(x_trans[,"x'"]),
  x_trans_calculated = 
    pmax((x-knots[1])^3, 0) -
    pmax((x-knots[2])^3, 0) * ((knots[3]-knots[1]) / (knots[3]-knots[2])) +
    pmax((x-knots[3])^3, 0) * ((knots[2]-knots[1])/(knots[3]-knots[2]))
)

## # A tibble: 100 × 3
##          x x_trans_actual x_trans_calculated
##      <dbl>          <dbl>              <dbl>
##  1 -0.560          0.0241             0.131 
##  2 -0.230          0.108              0.589 
##  3  1.56           2.14              11.6   
##  4  0.0705         0.271              1.48  
##  5  0.129          0.315              1.72  
##  6  1.72           2.37              12.9   
##  7  0.461          0.634              3.45  
##  8 -1.27           0                  0     
##  9 -0.687          0.0102             0.0555
## 10 -0.446          0.0443             0.241 
## # … with 90 more rows
…
