Removing higher-order aggregation text in {reactable} – Zajichek Stats
…
      June 29, 2023

Often when I’m building a reactable I have potentially many aggregation levels but only want to display data in a lower subset of those. Here is a quick way to eliminate text using cell styling.

First let’s load some packages and look at an example data set.

Code

library(tidyverse)
library(reactable)
dat <- cheese::heart_disease
dat

# A tibble: 303 × 9
     Age Sex    ChestPain           BP Cholesterol BloodSugar MaximumHR
   <dbl> <fct>  <fct>            <dbl>       <dbl> <lgl>          <dbl>
 1    63 Male   Typical angina     145         233 TRUE             150
 2    67 Male   Asymptomatic       160         286 FALSE            108
 3    67 Male   Asymptomatic       120         229 FALSE            129
 4    37 Male   Non-anginal pain   130         250 FALSE            187
 5    41 Female Atypical angina    130         204 FALSE            172
 6    56 Male   Atypical angina    120         236 FALSE            178
 7    62 Female Asymptomatic       140         268 FALSE            160
 8    57 Female Asymptomatic       120         354 FALSE            163
 9    63 Male   Asymptomatic       130         254 FALSE            147
10    53 Male   Asymptomatic       140         203 TRUE             155
# ℹ 293 more rows
# ℹ 2 more variables: ExerciseInducedAngina <fct>, HeartDisease <fct>
…
  # Send outcomes down the rows
  pivot_longer(
    cols = c(HeartDisease, MaximumHR),
    names_to = "Outcome",
    values_to = "HasOutcome"
  )
pivot_dat

# A tibble: 1,818 × 8
     Age Sex      BP Cholesterol ClinicalFactor        Level  Outcome HasOutcome
   <dbl> <fct> <dbl>       <dbl> <chr>                 <chr>  <chr>   <chr>     
 1    63 Male    145         233 ChestPain             Typic… HeartD… No        
 2    63 Male    145         233 ChestPain             Typic… Maximu… No        
 3    63 Male    145         233 ExerciseInducedAngina No     HeartD… No        
 4    63 Male    145         233 ExerciseInducedAngina No     Maximu… No        
 5    63 Male    145         233 BloodSugar            TRUE   HeartD… No        
 6    63 Male    145         233 BloodSugar            TRUE   Maximu… No        
 7    67 Male    160         286 ChestPain             Asymp… HeartD… Yes       
 8    67 Male    160         286 ChestPain             Asymp… Maximu… No        
 9    67 Male    160         286 ExerciseInducedAngina Yes    HeartD… Yes       
10    67 Male    160         286 ExerciseInducedAngina Yes    Maximu… No        
# ℹ 1,808 more rows
…
  # Rearrange
  relocate(PercentOfPatients, .after = Patients) |>
  relocate(Outcome, .before = everything()) |>
  arrange(
    Outcome,
    ClinicalFactor,
    Level,
    HasOutcome
  )
summary_dat

# A tibble: 32 × 9
   Outcome       ClinicalFactor      Level HasOutcome Patients PercentOfPatients
   <chr>         <chr>               <chr> <chr>         <int>             <dbl>
 1 Heart disease Blood sugar > 120 … No    No              141            0.465 
 2 Heart disease Blood sugar > 120 … No    Yes             117            0.386 
 3 Heart disease Blood sugar > 120 … Yes   No               23            0.0759
 4 Heart disease Blood sugar > 120 … Yes   Yes              22            0.0726
 5 Heart disease Chest pain type     Asym… No               39            0.129 
 6 Heart disease Chest pain type     Asym… Yes             105            0.347 
 7 Heart disease Chest pain type     Atyp… No               41            0.135 
 8 Heart disease Chest pain type     Atyp… Yes               9            0.0297
 9 Heart disease Chest pain type     Non-… No               68            0.224 
10 Heart disease Chest pain type     Non-… Yes              18            0.0594
# ℹ 22 more rows
# ℹ 3 more variables: OutcomeRate <dbl>, Age <dbl>, Female <dbl>
…
