A look at collider bias – Zajichek Stats
…
  # Remove the enrollment indicator
  select(
    -E
  )

The problem

Suppose we reach the desired enrollment size and we’re given a data set (called patients) to do some preliminary analysis on the sample. Here are the first 5 rows:

Code

print(patients, n = 5)

# A tibble: 1,000 × 2
  S          N    
  <fct>      <fct>
1 Non-severe Near 
2 Severe     Far  
3 Severe     Near 
4 Non-severe Near 
5 Non-severe Near 
# ℹ 995 more rows
…
