…
# Delete the downloaded file
file.remove(hrrp_file)
unlink(temp_file)

print(hrrp_results, n = 5)

## # A tibble: 3,048 × 36
##   `Hospital CCN` `Payment adjustment factor` `Payment Reducti…` `Dual proporti…`
##   <chr>                                <dbl>              <dbl>            <dbl>
## 1 010001                               0.990               0.97            0.163
## 2 010005                               0.998               0.15            0.141
## 3 010006                               0.984               1.6             0.107
## 4 010007                               0.995               0.51            0.235
## 5 010008                               1                   0               0.227
## # … with 3,043 more rows, and 32 more variables: `Peer group assignment` <dbl>,
## #   `Neutrality modifier` <dbl>, `Number of eligible discharges for AMI` <dbl>,
## #   `ERR for AMI` <dbl>, `Peer group median ERR for AMI` <dbl>,
## #   `Penalty indicator for AMI` <chr>, `DRG payment ratio for AMI` <dbl>,
## #   `Number of eligible discharges for COPD` <dbl>, `ERR for COPD` <dbl>,
## #   `Peer group median ERR for COPD` <dbl>, `Penalty indicator for COPD` <chr>,
## #   `DRG payment ratio for COPD` <dbl>, …
…
We need some identifying information for the hospitals such as name and zip code (this is what we’ll use for plotting). This is found on data.cms.gov, which we can import from directly:

# Set path to file (from CMS)
hosp_file <- "https://data.cms.gov/provider-data/sites/default/files/resources/092256becd267d9eeccf73bf7d16c46b_1641873938/Hospital_General_Information.csv"

# Import the file
hosp_info <-
  read_csv(
    file = hosp_file
  )

print(hosp_info, n = 5)

## # A tibble: 5,299 × 38
##   `Facility ID` `Facility Name`     Address City  State `ZIP Code` `County Name`
##   <chr>         <chr>               <chr>   <chr> <chr> <chr>      <chr>        
## 1 010001        SOUTHEAST HEALTH M… 1108 R… DOTH… AL    36301      HOUSTON      
## 2 010005        MARSHALL MEDICAL C… 2505 U… BOAZ  AL    35957      MARSHALL     
## 3 010006        NORTH ALABAMA MEDI… 1701 V… FLOR… AL    35630      LAUDERDALE   
## 4 010007        MIZELL MEMORIAL HO… 702 N … OPP   AL    36467      COVINGTON    
## 5 010008        CRENSHAW COMMUNITY… 101 HO… LUVE… AL    36049      CRENSHAW     
## # … with 5,294 more rows, and 31 more variables: `Phone Number` <chr>,
## #   `Hospital Type` <chr>, `Hospital Ownership` <chr>,
## #   `Emergency Services` <chr>,
## #   `Meets criteria for promoting interoperability of EHRs` <chr>,
## #   `Hospital overall rating` <chr>, `Hospital overall rating footnote` <dbl>,
## #   `MORT Group Measure Count` <chr>, `Count of Facility MORT Measures` <chr>,
## #   `Count of MORT Measures Better` <chr>, …
…
  # Add identifying column
  add_column(
    Zip = zips_wi$ZCTA5CE10
  ) %>%
  
  # Rename columns
  rename(
    lon = X,
    lat = Y
  )

print(zips_wi_centroids, n = 5)

## # A tibble: 774 × 3
##     lon   lat Zip  
##   <dbl> <dbl> <chr>
## 1 -89.8  43.7 53965
## 2 -89.6  44.1 54943
## 3 -89.5  44.2 54966
## 4 -90.7  46.3 54546
## 5 -90.5  46.5 54559
## # … with 769 more rows
…
  # Fill in non-penalized hospitals
  mutate(
    PenalizedCohortCount = coalesce(PenalizedCohortCount, 0),
    PenalizedCohorts = coalesce(PenalizedCohorts, "")
  ) 

print(map_data, n = 5)

## # A tibble: 62 × 16
##   FacilityID FacilityName     Zip     lon   lat PeerGroup DualProportion Penalty
##   <chr>      <chr>            <chr> <dbl> <dbl>     <dbl>          <dbl>   <dbl>
## 1 520002     ASCENSION ST MI… 54481 -89.7  44.5         4          0.262    0.12
## 2 520004     MAYO CLINIC HEA… 54601 -91.2  43.8         4          0.236    0.81
## 3 520008     WAUKESHA MEMORI… 53188 -88.3  43.1         2          0.139    0.31
## 4 520009     ASCENSION NE WI… 54915 -88.3  44.2         3          0.201    0.08
## 5 520011     MARSHFIELD MEDI… 54868 -91.7  45.5         4          0.259    0.37
## # … with 57 more rows, and 8 more variables: AMI <chr>, COPD <chr>, HF <chr>,
## #   pneumonia <chr>, CABG <chr>, `THA/TKA` <chr>, PenalizedCohortCount <dbl>,
## #   PenalizedCohorts <chr>
…
