Building a filterable map with {leaflet} and {crosstalk} for hospital readmissions – Zajichek Stats
…
# Delete the downloaded file
file.remove(hrrp_file)
unlink(temp_file)

Code

print(hrrp_results, n = 5)

# A tibble: 3,048 × 36
  `Hospital CCN` Payment adjustment f…¹ Payment Reduction Pe…² `Dual proportion`
  <chr>                           <dbl>                  <dbl>             <dbl>
1 010001                          0.990                   0.97             0.163
2 010005                          0.998                   0.15             0.141
3 010006                          0.984                   1.6              0.107
4 010007                          0.995                   0.51             0.235
5 010008                          1                       0                0.227
# ℹ 3,043 more rows
# ℹ abbreviated names: ¹​`Payment adjustment factor`,
#   ²​`Payment Reduction Percentage`
# ℹ 32 more variables: `Peer group assignment` <dbl>,
#   `Neutrality modifier` <dbl>, `Number of eligible discharges for AMI` <dbl>,
#   `ERR for AMI` <dbl>, `Peer group median ERR for AMI` <dbl>,
#   `Penalty indicator for AMI` <chr>, `DRG payment ratio for AMI` <dbl>, …
…
# Set path to file (from CMS)
hosp_file <- "https://data.cms.gov/provider-data/sites/default/files/resources/092256becd267d9eeccf73bf7d16c46b_1689206722/Hospital_General_Information.csv"

# Import the file
hosp_info <-
  read_csv(
    file = hosp_file
  )

Code

print(hosp_info, n = 5)

# A tibble: 5,394 × 39
  `Facility ID` `Facility Name`             Address `City/Town` State `ZIP Code`
  <chr>         <chr>                       <chr>   <chr>       <chr> <chr>     
1 010001        SOUTHEAST HEALTH MEDICAL C… 1108 R… DOTHAN      AL    36301     
2 010005        MARSHALL MEDICAL CENTERS    2505 U… BOAZ        AL    35957     
3 010006        NORTH ALABAMA MEDICAL CENT… 1701 V… FLORENCE    AL    35630     
4 010007        MIZELL MEMORIAL HOSPITAL    702 N … OPP         AL    36467     
5 010008        CRENSHAW COMMUNITY HOSPITAL 101 HO… LUVERNE     AL    36049     
# ℹ 5,389 more rows
# ℹ 33 more variables: `County/Parish` <chr>, `Telephone Number` <chr>,
#   `Hospital Type` <chr>, `Hospital Ownership` <chr>,
#   `Emergency Services` <chr>,
#   `Meets criteria for promoting interoperability of EHRs` <chr>,
#   `Meets criteria for birthing friendly designation` <chr>,
#   `Hospital overall rating` <chr>, …
…
  # Rename columns
  rename(
    lon = X,
    lat = Y
  )

Code

print(zips_wi_centroids, n = 5)

# A tibble: 774 × 3
    lon   lat Zip  
  <dbl> <dbl> <chr>
1 -89.8  43.7 53965
2 -89.6  44.1 54943
3 -89.5  44.2 54966
4 -90.7  46.3 54546
5 -90.5  46.5 54559
# ℹ 769 more rows
…
  # Fill in non-penalized hospitals
  mutate(
    PenalizedCohortCount = coalesce(PenalizedCohortCount, 0),
    PenalizedCohorts = coalesce(PenalizedCohorts, "")
  ) 

Code

print(map_data, n = 5)

# A tibble: 59 × 16
  FacilityID FacilityName     Zip     lon   lat PeerGroup DualProportion Penalty
  <chr>      <chr>            <chr> <dbl> <dbl>     <dbl>          <dbl>   <dbl>
1 520002     ASPIRUS STEVENS… 54481 -89.7  44.5         4          0.262    0.12
2 520004     MAYO CLINIC HEA… 54601 -91.2  43.8         4          0.236    0.81
3 520008     WAUKESHA MEMORI… 53188 -88.2  43.0         2          0.139    0.31
4 520009     ASCENSION NE WI… 54915 -88.4  44.2         3          0.201    0.08
5 520011     MARSHFIELD MEDI… 54868 -91.7  45.5         4          0.259    0.37
# ℹ 54 more rows
# ℹ 8 more variables: AMI <chr>, COPD <chr>, HF <chr>, pneumonia <chr>,
#   CABG <chr>, `THA/TKA` <chr>, PenalizedCohortCount <dbl>,
#   PenalizedCohorts <chr>
…
