…
## Rows: 544 Columns: 4
## ── Column specification ────────────────────────────────────────────────────────
## Delimiter: ";"
## dbl (4): height, weight, age, male
## 
## ℹ Use `spec()` to retrieve the full column specification for this data.
## ℹ Specify the column types or set `show_col_types = FALSE` to quiet this message.

howell1

## # A tibble: 146 × 4
##    height weight   age  male
##     <dbl>  <dbl> <dbl> <dbl>
##  1   48     43.3  12       1
##  2   41.5   30.8   8       0
##  3   34     23.1   6.5     0
##  4   43     35.3   7       0
##  5   45     39.4  11       1
##  6   48     45.0   8       1
##  7   50.8   51.5  12       0
##  8   38.5   29.3   5       0
##  9   43.5   34.0   9       0
## 10   38.5   28.1   5       0
## # … with 136 more rows
…
