…
Often when I’m building a reactable I have potentially many aggregation levels but only want to display data in a lower subset of those. Here is a quick way to eliminate text using cell styling.

First let’s load some packages and look at an example data set.

library(tidyverse)
library(reactable)
dat <- cheese::heart_disease
dat

## # A tibble: 303 × 9
##      Age Sex    ChestPain           BP Cholest…¹ Blood…² Maxim…³ Exerc…⁴ Heart…⁵
##    <dbl> <fct>  <fct>            <dbl>     <dbl> <lgl>     <dbl> <fct>   <fct>  
##  1    63 Male   Typical angina     145       233 TRUE        150 No      No     
##  2    67 Male   Asymptomatic       160       286 FALSE       108 Yes     Yes    
##  3    67 Male   Asymptomatic       120       229 FALSE       129 Yes     Yes    
##  4    37 Male   Non-anginal pain   130       250 FALSE       187 No      No     
##  5    41 Female Atypical angina    130       204 FALSE       172 No      No     
##  6    56 Male   Atypical angina    120       236 FALSE       178 No      No     
##  7    62 Female Asymptomatic       140       268 FALSE       160 No      Yes    
##  8    57 Female Asymptomatic       120       354 FALSE       163 Yes     No     
##  9    63 Male   Asymptomatic       130       254 FALSE       147 No      Yes    
## 10    53 Male   Asymptomatic       140       203 TRUE        155 Yes     Yes    
## # … with 293 more rows, and abbreviated variable names ¹​Cholesterol,
## #   ²​BloodSugar, ³​MaximumHR, ⁴​ExerciseInducedAngina, ⁵​HeartDisease
…
  # Send outcomes down the rows
  pivot_longer(
    cols = c(HeartDisease, MaximumHR),
    names_to = "Outcome",
    values_to = "HasOutcome"
  )
pivot_dat

## # A tibble: 1,818 × 8
##      Age Sex      BP Cholesterol ClinicalFactor        Level     Outcome HasOu…¹
##    <dbl> <fct> <dbl>       <dbl> <chr>                 <chr>     <chr>   <chr>  
##  1    63 Male    145         233 ChestPain             Typical … HeartD… No     
##  2    63 Male    145         233 ChestPain             Typical … Maximu… No     
##  3    63 Male    145         233 ExerciseInducedAngina No        HeartD… No     
##  4    63 Male    145         233 ExerciseInducedAngina No        Maximu… No     
##  5    63 Male    145         233 BloodSugar            TRUE      HeartD… No     
##  6    63 Male    145         233 BloodSugar            TRUE      Maximu… No     
##  7    67 Male    160         286 ChestPain             Asymptom… HeartD… Yes    
##  8    67 Male    160         286 ChestPain             Asymptom… Maximu… No     
##  9    67 Male    160         286 ExerciseInducedAngina Yes       HeartD… Yes    
## 10    67 Male    160         286 ExerciseInducedAngina Yes       Maximu… No     
## # … with 1,808 more rows, and abbreviated variable name ¹​HasOutcome
…
  # Rearrange
  relocate(PercentOfPatients, .after = Patients) |>
  relocate(Outcome, .before = everything()) |>
  arrange(
    Outcome,
    ClinicalFactor,
    Level,
    HasOutcome
  )
summary_dat

## # A tibble: 32 × 9
##    Outcome       ClinicalFa…¹ Level HasOu…² Patie…³ Perce…⁴ Outco…⁵   Age Female
##    <chr>         <chr>        <chr> <chr>     <int>   <dbl>   <dbl> <dbl>  <dbl>
##  1 Heart disease Blood sugar… No    No          141  0.465        0  52   0.468 
##  2 Heart disease Blood sugar… No    Yes         117  0.386        1  56.4 0.162 
##  3 Heart disease Blood sugar… Yes   No           23  0.0759       0  56.2 0.261 
##  4 Heart disease Blood sugar… Yes   Yes          22  0.0726       1  57.9 0.273 
##  5 Heart disease Chest pain … Asym… No           39  0.129        0  54.1 0.462 
##  6 Heart disease Chest pain … Asym… Yes         105  0.347        1  56.3 0.210 
##  7 Heart disease Chest pain … Atyp… No           41  0.135        0  50.0 0.390 
##  8 Heart disease Chest pain … Atyp… Yes           9  0.0297       1  57.4 0.222 
##  9 Heart disease Chest pain … Non-… No           68  0.224        0  52.4 0.5   
## 10 Heart disease Chest pain … Non-… Yes          18  0.0594       1  58.5 0.0556
## # … with 22 more rows, and abbreviated variable names ¹​ClinicalFactor,
## #   ²​HasOutcome, ³​Patients, ⁴​PercentOfPatients, ⁵​OutcomeRate
…
