Nesting with {tidyr} – Zajichek Stats
…
For example, lets say we have a dataset.

Code

dat <- cheese::heart_disease
dat

# A tibble: 303 × 9
     Age Sex    ChestPain           BP Cholesterol BloodSugar MaximumHR
   <dbl> <fct>  <fct>            <dbl>       <dbl> <lgl>          <dbl>
 1    63 Male   Typical angina     145         233 TRUE             150
 2    67 Male   Asymptomatic       160         286 FALSE            108
 3    67 Male   Asymptomatic       120         229 FALSE            129
 4    37 Male   Non-anginal pain   130         250 FALSE            187
 5    41 Female Atypical angina    130         204 FALSE            172
 6    56 Male   Atypical angina    120         236 FALSE            178
 7    62 Female Asymptomatic       140         268 FALSE            160
 8    57 Female Asymptomatic       120         354 FALSE            163
 9    63 Male   Asymptomatic       130         254 FALSE            147
10    53 Male   Asymptomatic       140         203 TRUE             155
# ℹ 293 more rows
# ℹ 2 more variables: ExerciseInducedAngina <fct>, HeartDisease <fct>
…
