Exploring COM Poisson regression – Zajichek Stats
…
Code

# Load some packages
require(tidyverse)

# Check the dataset
print(ed_volumes, n = 5)

# A tibble: 730 × 3
  Date       TimeOfDay Volume
  <date>     <chr>      <int>
1 2021-12-31 AM            19
2 2021-12-31 PM            12
3 2021-12-30 AM            20
4 2021-12-30 PM            20
5 2021-12-29 AM             9
# ℹ 725 more rows
…
